{
  "data": {
    "pageSize": 10,
    "start": 0,
    "data": [
      {
        "orderNo": "9699998993",
        "customerType": "1",
        "customerTypeDesc": "个人",
        "customerName": "蔡明福",
        "customerPhone": "13781118947",
        "customerIdentityCard": "362133197503230034",
        "carMasterBrandId": "9",
        "carMasterBrandName": "奥迪",
        "carBrandId": "20004",
        "carBrandName": "奥迪进口",
        "carModelId": "2071",
        "carModelName": "奥迪A6(进口)",
        "carStyleId": "125792",
        "carStyleName": "3.0T 双离合 allroad quattro",
        "productCode": "M000088",
        "productName": " 娜娜利率产品贴息（勿操作） ",
        "dealerCode": "B180328026",
        "dealerName": "上海逸禾汽车销售服务有限公司",
        "businessType": "01300000",
        "businessTypeDesc": "消费贷",
        "orderStatus": "P004",
        "orderStatusDesc": "待补充提报",
        "orderStage": "level1",
        "orderStageDesc": "我的待处理",
        "orderSubStage": "level12",
        "createId": "kehucfy0103005",
        "salesLeader": "kehucfy0103005",
        "accountType": "2",
        "createTime": 1548077258000
      },
      {
        "orderNo": "9199998990",
        "customerType": "2",
        "customerTypeDesc": "企业",
        "carType": "049500001",
        "carTypeDesc": "二手车",
        "carMasterBrandId": "26",
        "carMasterBrandName": "本田",
        "carBrandId": "20063",
        "carBrandName": "东风本田",
        "carModelId": "1661",
        "carModelName": "思域",
        "carStyleId": "119061",
        "carStyleName": "1.5T CVT 220TURBO尊耀版",
        "productCode": "M000097",
        "productName": "利率测试产品二手车",
        "dealerCode": "B180328026",
        "dealerName": "上海逸禾汽车销售服务有限公司",
        "businessType": "01300000",
        "businessTypeDesc": "消费贷",
        "fundCode": "YX",
        "orderStatus": "P004",
        "orderStatusDesc": "待补充提报",
        "orderStage": "level1",
        "orderStageDesc": "我的待处理",
        "orderSubStage": "level12",
        "createId": "kehucfy0103005",
        "salesLeader": "kehucfy0103005",
        "accountType": "2",
        "createTime": 1548075116000
      },
      {
        "orderNo": "3199998991",
        "customerType": "2",
        "customerTypeDesc": "企业",
        "customerName": "武汉汇文尚品文化用品有限公司",
        "customerPhone": "13589565689",
        "customerIdentityCard": "232330198912104618",
        "carType": "049500001",
        "carTypeDesc": "二手车",
        "carMasterBrandId": "26",
        "carMasterBrandName": "本田",
        "carBrandId": "20063",
        "carBrandName": "东风本田",
        "carModelId": "1661",
        "carModelName": "思域",
        "carStyleId": "119061",
        "carStyleName": "1.5T CVT 220TURBO尊耀版",
        "productCode": "M000097",
        "productName": "利率测试产品二手车",
        "dealerCode": "B180328026",
        "dealerName": "上海逸禾汽车销售服务有限公司",
        "businessType": "01300000",
        "businessTypeDesc": "消费贷",
        "fundCode": "YX",
        "orderStatus": "P004",
        "orderStatusDesc": "待补充提报",
        "orderStage": "level1",
        "orderStageDesc": "我的待处理",
        "orderSubStage": "level12",
        "createId": "kehucfy0103005",
        "salesLeader": "kehucfy0103005",
        "accountType": "2",
        "createTime": 1548073366000
      },
      {
        "orderNo": "3599998993",
        "customerType": "2",
        "customerTypeDesc": "企业",
        "customerName": "锦江国际（集团）有限公司",
        "customerPhone": "13956523658",
        "customerIdentityCard": "232330198912104618",
        "carType": "049500001",
        "carTypeDesc": "二手车",
        "carMasterBrandId": "26",
        "carMasterBrandName": "本田",
        "carBrandId": "20063",
        "carBrandName": "东风本田",
        "carModelId": "1661",
        "carModelName": "思域",
        "carStyleId": "119061",
        "carStyleName": "1.5T CVT 220TURBO尊耀版",
        "productCode": "M000097",
        "productName": "利率测试产品二手车",
        "dealerCode": "B180328026",
        "dealerName": "上海逸禾汽车销售服务有限公司",
        "businessType": "01300000",
        "businessTypeDesc": "消费贷",
        "fundCode": "YX",
        "orderStatus": "P086",
        "orderStatusDesc": "提交失败",
        "orderStage": "level1",
        "orderStageDesc": "我的待处理",
        "orderSubStage": "level12",
        "approvalRemark": "GD0001_1",
        "createId": "kehucfy0103005",
        "salesLeader": "kehucfy0103005",
        "accountType": "2",
        "createTime": 1548065846000,
        "loanAmount": "113575.000000",
        "carLoanAmount": "160000.000000",
        "termsLoanNum": "36",
        "referenceMoney": "3791.770000",
        "carPrice": 160000.0
      },
      {
        "orderNo": "0799998991",
        "customerType": "2",
        "customerTypeDesc": "企业",
        "customerName": "森立纸业集团有限公司",
        "customerPhone": "13025265254",
        "customerIdentityCard": "232330198912104618",
        "carType": "049500001",
        "carTypeDesc": "二手车",
        "carMasterBrandId": "26",
        "carMasterBrandName": "本田",
        "carBrandId": "20063",
        "carBrandName": "东风本田",
        "carModelId": "1661",
        "carModelName": "思域",
        "carStyleId": "119061",
        "carStyleName": "1.5T CVT 220TURBO尊耀版",
        "productCode": "M000097",
        "productName": "利率测试产品二手车",
        "dealerCode": "B180328026",
        "dealerName": "上海逸禾汽车销售服务有限公司",
        "businessType": "01300000",
        "businessTypeDesc": "消费贷",
        "fundCode": "YX",
        "orderStatus": "P034",
        "orderStatusDesc": "总部电核中（初审）",
        "orderStage": "level3",
        "orderStageDesc": "人工处理中",
        "orderSubStage": "level12",
        "approvalRemark": "GD0001_1",
        "createId": "kehucfy0103005",
        "salesLeader": "kehucfy0103005",
        "accountType": "2",
        "createTime": 1548063758000,
        "loanAmount": "113575.000000",
        "carLoanAmount": "160000.000000",
        "termsLoanNum": "24",
        "referenceMoney": "5182.390000",
        "carPrice": 160000.0
      },
      {
        "orderNo": "0099998992",
        "customerType": "2",
        "customerTypeDesc": "企业",
        "customerName": "上海子润实业有限公司",
        "customerPhone": "15522246663",
        "customerIdentityCard": "42128119911220231X",
        "carType": "049500000",
        "carTypeDesc": "新车",
        "carMasterBrandId": "163",
        "carMasterBrandName": "北京",
        "carBrandId": "20173",
        "carBrandName": "北京汽车",
        "carModelId": "2947",
        "carModelName": "北京BJ40",
        "carStyleId": "128054",
        "carStyleName": "2.0T 手动 40L四驱 尊贵版 柴油",
        "productCode": "M000087",
        "productName": " 娜娜费率产品分期收（勿操作）",
        "dealerCode": "B180328026",
        "dealerName": "上海逸禾汽车销售服务有限公司",
        "businessType": "01300000",
        "businessTypeDesc": "消费贷",
        "fundCode": "YX",
        "orderStatus": "P004",
        "orderStatusDesc": "待补充提报",
        "orderStage": "level1",
        "orderStageDesc": "我的待处理",
        "orderSubStage": "level12",
        "createId": "kehucfy0103005",
        "salesLeader": "kehucfy0103005",
        "accountType": "2",
        "createTime": 1548063343000,
        "loanAmount": "118075.000000",
        "carLoanAmount": "150000.000000",
        "termsLoanNum": "12",
        "referenceMoney": "9839.580000",
        "carPrice": 150000.0
      },
      {
        "orderNo": "5299998991",
        "customerType": "2",
        "customerTypeDesc": "企业",
        "carType": "049500000",
        "carTypeDesc": "新车",
        "carMasterBrandId": "163",
        "carMasterBrandName": "北京",
        "carBrandId": "20173",
        "carBrandName": "北京汽车",
        "carModelId": "2947",
        "carModelName": "北京BJ40",
        "carStyleId": "128054",
        "carStyleName": "2.0T 手动 40L四驱 尊贵版 柴油",
        "productCode": "M000088",
        "productName": " 娜娜利率产品贴息（勿操作） ",
        "dealerCode": "B180328026",
        "dealerName": "上海逸禾汽车销售服务有限公司",
        "businessType": "01300000",
        "businessTypeDesc": "消费贷",
        "fundCode": "YX",
        "orderStatus": "P004",
        "orderStatusDesc": "待补充提报",
        "orderStage": "level1",
        "orderStageDesc": "我的待处理",
        "orderSubStage": "level12",
        "createId": "kehucfy0103005",
        "salesLeader": "kehucfy0103005",
        "accountType": "2",
        "createTime": 1548059870000,
        "loanAmount": "118075.000000",
        "carLoanAmount": "150000.000000",
        "termsLoanNum": "36",
        "referenceMoney": "3279.860000",
        "carPrice": 150000.0
      },
      {
        "orderNo": "6899998992",
        "customerType": "2",
        "customerTypeDesc": "企业",
        "customerName": "上海子润实业有限公司",
        "customerPhone": "15529296363",
        "customerIdentityCard": "330901195601290686",
        "carType": "049500000",
        "carTypeDesc": "新车",
        "carMasterBrandId": "163",
        "carMasterBrandName": "北京",
        "carBrandId": "20173",
        "carBrandName": "北京汽车",
        "carModelId": "2947",
        "carModelName": "北京BJ40",
        "carStyleId": "128054",
        "carStyleName": "2.0T 手动 40L四驱 尊贵版 柴油",
        "productCode": "M000087",
        "productName": " 娜娜费率产品分期收（勿操作）",
        "dealerCode": "B180328026",
        "dealerName": "上海逸禾汽车销售服务有限公司",
        "businessType": "01300000",
        "businessTypeDesc": "消费贷",
        "fundCode": "YX",
        "orderStatus": "P004",
        "orderStatusDesc": "待补充提报",
        "orderStage": "level1",
        "orderStageDesc": "我的待处理",
        "orderSubStage": "level12",
        "createId": "kehucfy0103005",
        "salesLeader": "kehucfy0103005",
        "accountType": "2",
        "createTime": 1548052018000,
        "loanAmount": "120075.000000",
        "carLoanAmount": "150000.000000",
        "termsLoanNum": "24",
        "referenceMoney": "5439.200000",
        "carPrice": 150000.0
      },
      {
        "orderNo": "6399998993",
        "customerType": "2",
        "customerTypeDesc": "企业",
        "customerName": "福建盼盼饮料有限公司",
        "customerPhone": "13522222222",
        "customerIdentityCard": "232330198912104618",
        "carType": "049500001",
        "carTypeDesc": "二手车",
        "carMasterBrandId": "263",
        "carMasterBrandName": "比速",
        "carBrandId": "20295",
        "carBrandName": "20295",
        "carModelId": "4851",
        "carModelName": "比速T3",
        "carStyleId": "10005496",
        "carStyleName": "1.3T CVT 旗舰型",
        "productCode": "M000097",
        "productName": "利率测试产品二手车",
        "dealerCode": "B180328026",
        "dealerName": "上海逸禾汽车销售服务有限公司",
        "businessType": "01300000",
        "businessTypeDesc": "消费贷",
        "fundCode": "YX",
        "orderStatus": "P051",
        "orderStatusDesc": "合同已生效",
        "orderStage": "level4",
        "orderStageDesc": "已结束（拒绝/成功/取消）",
        "orderSubStage": "level14",
        "approvalRemark": "",
        "createId": "kehucfy0103005",
        "salesLeader": "kehucfy0103005",
        "accountType": "2",
        "createTime": 1548051935000,
        "loanAmount": "49575.000000",
        "carLoanAmount": "80000.000000",
        "termsLoanNum": "12",
        "referenceMoney": "4448.400000",
        "carPrice": 80000.0
      },
      {
        "orderNo": "9899998994",
        "customerType": "2",
        "customerTypeDesc": "企业",
        "carType": "049500001",
        "carTypeDesc": "二手车",
        "carMasterBrandId": "97",
        "carMasterBrandName": "阿斯顿·马丁",
        "carBrandId": "20003",
        "carBrandName": "阿斯顿·马丁",
        "carModelId": "2140",
        "carModelName": "阿斯顿·马丁V8 Vantage",
        "carStyleId": "127332",
        "carStyleName": "4.0T 自动 基本版",
        "productCode": "M000061",
        "productName": "放鑫融高息产品B",
        "dealerCode": "B180328026",
        "dealerName": "上海逸禾汽车销售服务有限公司",
        "businessType": "0130000100000",
        "businessTypeDesc": "车抵贷",
        "fundCode": "YX",
        "orderStatus": "P004",
        "orderStatusDesc": "待补充提报",
        "orderStage": "level1",
        "orderStageDesc": "我的待处理",
        "orderSubStage": "level12",
        "createId": "kehucfy0103005",
        "salesLeader": "kehucfy0103005",
        "accountType": "2",
        "createTime": 1548050758000
      }
    ],
    "resultCount": 126,
    "current": 1,
    "rowCount": 10,
    "pageCount": 13,
    "pageIndex": 0,
    "total": 126
  },
  "errorCode": null,
  "errorMessage": null,
  "success": true
}